[
	{
		"firstname": "Antoine",
		"lastname": "Thibault",
		"email": "athibault@monorepoc.com",
		"password": "4572a709-83b0-49f3-ac33-c21349857e3a"
	},
	{
		"firstname": "Morel",
		"lastname": "Cissé",
		"email": "mcisse@cy.io",
		"password": "c21349857e3a-83b0-4572a709-ac33-49f3"
	}
]
